Project_1_(Colleges)
…
fulldata <- institutions %>% full_join(retentionrates)
fulldata %>% pivot_wider(names_from = "Gender", values_from = "GenderTotal")

## # A tibble: 130,662 x 20
##    UnitID Institution.Name Institution.nam… Street.address.… City.location.o…
##     <int> <fct>            <fct>            <fct>            <fct>           
##  1 180203 Aaniiih Nakoda … " "              269 Blackfeet A… Harlem          
##  2 180203 Aaniiih Nakoda … " "              269 Blackfeet A… Harlem          
##  3 180203 Aaniiih Nakoda … " "              269 Blackfeet A… Harlem          
##  4 180203 Aaniiih Nakoda … " "              269 Blackfeet A… Harlem          
##  5 180203 Aaniiih Nakoda … " "              269 Blackfeet A… Harlem          
##  6 180203 Aaniiih Nakoda … " "              269 Blackfeet A… Harlem          
##  7 180203 Aaniiih Nakoda … " "              269 Blackfeet A… Harlem          
##  8 180203 Aaniiih Nakoda … " "              269 Blackfeet A… Harlem          
##  9 180203 Aaniiih Nakoda … " "              269 Blackfeet A… Harlem          
## 10 180203 Aaniiih Nakoda … " "              269 Blackfeet A… Harlem          
## # … with 130,652 more rows, and 15 more variables:
## #   State.abbreviation..HD2016. <fct>, ZIP.code..HD2016. <fct>,
## #   Institution.s.internet.website.address..HD2016. <fct>,
## #   Longitude.location.of.institution..HD2016. <dbl>,
## #   Latitude.location.of.institution..HD2016. <dbl>,
## #   TotalPercentAdmitted_2016 <int>, TotalStudents_2016 <int>,
## #   `Race/EthnicityTotal` <int>, `Race/Ethnicity` <chr>, Year <chr>,
## #   Time <chr>, Retention_Rate <int>, Men <int>, Women <int>, `NA` <int>

fulldata_NAomit <- na.omit(fulldata)

I used a full join for this data set because I wanted to keep the variables from both sets. This includes the retention rates and time of student from retentionrates data as well as the gender, ethnicity/race, and the percent admitted from institutions. I did omit the NAs in order to make summary statistics easier to work with as well as reducing the observations so it was neater.

fulldata %>% group_by(Institution.Name, Year) %>% summarize(mean_retention = mean(Retention_Rate, 
    na.rm = T), sd_retention = sd(Retention_Rate, na.rm = T))

## # A tibble: 34,209 x 4
## # Groups:   Institution.Name [3,801]
##    Institution.Name             Year  mean_retention sd_retention
##    <fct>                        <chr>          <dbl>        <dbl>
##  1 Aaniiih Nakoda College       2008            53.5         4.95
##  2 Aaniiih Nakoda College       2009            48          NA   
##  3 Aaniiih Nakoda College       2010            50          NA   
##  4 Aaniiih Nakoda College       2011            62.5         3.54
##  5 Aaniiih Nakoda College       2012            76          33.9 
##  6 Aaniiih Nakoda College       2013            60.5         9.19
##  7 Aaniiih Nakoda College       2014            21          29.7 
##  8 Aaniiih Nakoda College       2015            24          33.9 
##  9 Aaniiih Nakoda College       2016            81.5        18.8 
## 10 Abilene Christian University 2008            71           5.66
## # … with 34,199 more rows

# This is showing the mean and standard deviation of the
# retention rate based on year and insitution
fulldata_NAomit %>% group_by(City.location.of.institution..HD2016., 
    Gender) %>% summarize(mean_gender = mean(GenderTotal, na.rm = T), 
    sd_gender = sd(GenderTotal, na.rm = T))

## # A tibble: 2,030 x 4
## # Groups:   City.location.of.institution..HD2016. [1,015]
##    City.location.of.institution..HD2016. Gender mean_gender sd_gender
##    <fct>                                 <chr>        <dbl>     <dbl>
##  1 Aberdeen                              Men           812      521. 
##  2 Aberdeen                              Women        1136      622. 
##  3 Abilene                               Men          1121.     447. 
##  4 Abilene                               Women        1453      777. 
##  5 Abington                              Men          1864        0  
##  6 Abington                              Women        2086        0  
##  7 Ada                                   Men          1372.      79.7
##  8 Ada                                   Women        1675      477. 
##  9 Addison                               Men          1519        0  
## 10 Addison                               Women       14345        0  
## # … with 2,020 more rows

# The mean and standard deviation of gender total in an
# institution based on the city and gender
fulldata_NAomit %>% filter(Time == "Fulltime") %>% arrange(City.location.of.institution..HD2016., 
    State.abbreviation..HD2016., ZIP.code..HD2016.) %>% mutate(Students_Retained = (TotalStudents_2016 * 
    Retention_Rate))

## # A tibble: 32,148 x 20
##    UnitID Institution.Name Institution.nam… Street.address.… City.location.o…
##     <int> <fct>            <fct>            <fct>            <fct>           
##  1 219295 Presentation Co… " "              1500 N Main      Aberdeen        
##  2 219295 Presentation Co… " "              1500 N Main      Aberdeen        
##  3 219295 Presentation Co… " "              1500 N Main      Aberdeen        
##  4 219295 Presentation Co… " "              1500 N Main      Aberdeen        
##  5 219295 Presentation Co… " "              1500 N Main      Aberdeen        
##  6 219295 Presentation Co… " "              1500 N Main      Aberdeen        
##  7 219295 Presentation Co… " "              1500 N Main      Aberdeen        
##  8 219295 Presentation Co… " "              1500 N Main      Aberdeen        
##  9 219295 Presentation Co… " "              1500 N Main      Aberdeen        
## 10 219295 Presentation Co… " "              1500 N Main      Aberdeen        
## # … with 32,138 more rows, and 15 more variables:
## #   State.abbreviation..HD2016. <fct>, ZIP.code..HD2016. <fct>,
## #   Institution.s.internet.website.address..HD2016. <fct>,
## #   Longitude.location.of.institution..HD2016. <dbl>,
## #   Latitude.location.of.institution..HD2016. <dbl>,
## #   TotalPercentAdmitted_2016 <int>, TotalStudents_2016 <int>, Gender <chr>,
## #   GenderTotal <int>, `Race/EthnicityTotal` <int>, `Race/Ethnicity` <chr>,
## #   Year <chr>, Time <chr>, Retention_Rate <int>, Students_Retained <int>

# Finding the amount of the total students is retained every
# year
fulldata %>% group_by(Time, City.location.of.institution..HD2016., 
    Institution.Name) %>% summarize(Max_RetentionRate = max(Retention_Rate, 
    na.rm = T))

## # A tibble: 7,678 x 4
## # Groups:   Time, City.location.of.institution..HD2016. [3,564]
##    Time    City.location.of.institu… Institution.Name           Max_RetentionRa…
##    <chr>   <fct>                     <fct>                                 <dbl>
##  1 Fullti… ""                        Advanced College-Stockton              -Inf
##  2 Fullti… ""                        America Evangelical Unive…             -Inf
##  3 Fullti… ""                        Bais Medrash Mayan Hatorah             -Inf
##  4 Fullti… ""                        Bolivar Technical College              -Inf
##  5 Fullti… ""                        California Institute of A…             -Inf
##  6 Fullti… ""                        Career Quest Learning Cen…             -Inf
##  7 Fullti… ""                        Elyon College                          -Inf
##  8 Fullti… ""                        Fortis College-Cutler Bay              -Inf
##  9 Fullti… ""                        Galen College of Nursing-…             -Inf
## 10 Fullti… ""                        Gwinnett Institute                     -Inf
## # … with 7,668 more rows

# Finding the max retention rate by city and institution
fulldata_NAomit %>% group_by(Institution.Name, City.location.of.institution..HD2016.) %>% 
    summarize(count = n())

## # A tibble: 1,791 x 3
## # Groups:   Institution.Name [1,778]
##    Institution.Name                            City.location.of.instituti… count
##    <fct>                                       <fct>                       <int>
##  1 Abilene Christian University                Abilene                        36
##  2 Abraham Baldwin Agricultural College        Tifton                         36
##  3 Adams State University                      Alamosa                        36
##  4 Adelphi University                          Garden City                    36
##  5 Adrian College                              Adrian                         18
##  6 Advanced Technology Institute               Virginia Beach                 18
##  7 Adventist University of Health Sciences     Orlando                        36
##  8 Advertising Art Educational Services DBA S… Kettering                      18
##  9 Agnes Scott College                         Decatur                        36
## 10 Alabama A & M University                    Normal                         36
## # … with 1,781 more rows
…
## # A tibble: 1 x 1
##   `cor(Retention_Rate, TotalPercentAdmitted_2016, use = "pair")`
##                                                            <dbl>
## 1                                                         -0.114

# finding if there is a correlation between retention rate
# and total percent admitted
fulldata_NAomit %>% group_by(`Race/Ethnicity`, State.abbreviation..HD2016.) %>% 
    summarize(mean_race = mean(`Race/EthnicityTotal`)) %>% arrange(desc(mean_race))

## # A tibble: 459 x 3
## # Groups:   Race/Ethnicity [9]
##    `Race/Ethnicity` State.abbreviation..HD2016. mean_race
##    <chr>            <fct>                           <dbl>
##  1 White            UT                             11727.
##  2 White            ID                              7906.
##  3 White            AZ                              7454.
##  4 White            WY                              7176 
##  5 White            CO                              4923.
##  6 White            MI                              4715.
##  7 White            NH                              4686.
##  8 White            KY                              4587.
##  9 White            IN                              4352.
## 10 White            WI                              4302.
## # … with 449 more rows

# determining the mean race of the different race/ethnicity
# based on the states they are located in
fulldata_NAomit %>% group_by(ZIP.code..HD2016.) %>% summarize(min_percentadmitted = min(TotalPercentAdmitted_2016)) %>% 
    arrange(desc(min_percentadmitted))

## # A tibble: 1,743 x 2
##    ZIP.code..HD2016. min_percentadmitted
##    <fct>                           <int>
##  1 10950                             100
##  2 10960-3698                        100
##  3 12204                             100
##  4 14485-9704                        100
##  5 16101                             100
##  6 16335                             100
##  7 19096                             100
##  8 19122                             100
##  9 27560-0000                        100
## 10 3054                              100
## # … with 1,733 more rows
…
